…
One more sanity check. The years should all have about the same number of days.


```r
dwdHamburg %>%
  group_by(mYear) %>%
  summarise(no_rows = length(mYear))
```

```
## # A tibble: 64 × 2
##     mYear no_rows
##    <fctr>   <int>
## 1    1952     306
## 2    1953     730
## 3    1954     730
## 4    1955     730
## 5    1956     732
## 6    1957     730
## 7    1958     730
## 8    1959     730
## 9    1960     732
## 10   1961     730
## # ... with 54 more rows
```
…
